Checking Missing Values
…
Saw menu but no open response
260 (22.65%)
888 (77.35%)

Some open response
589 (62.73%)
350 (37.27%)

Who are those 350 respondents who have a valid 5 digit code from the menu and provided some open response?

# A tibble: 350 × 3
   occupation_code pes25_occ_select_2      NOC21_5
   <chr>           <chr>                     <dbl>
 1 13100           Agente socio-économique   13100
 2 20010           Yes                       20010
 3 11100           retired                   11100
 4 70020           Yes                       70020
 5 41221           yes                       41221
 6 31300           Clinical nurse            31300
 7 10029           Office worker             10029
 8 00012           YES                          12
 9 10022           Exact                     10022
10 41210           Yes                       41210
# ℹ 340 more rows

To me these look like people who picked a menu response (so there is a valid 5 digit NOC code from the menu) and then validated that response in some way. But they clearly do have a good NOC code.

So, what of the of the 489 ones who do not have a valid 5-digit NOC code from the Qualtrics menu, but gave an open-ended response, what happened to them?

# A tibble: 589 × 3
   occupation_code pes25_occ_select_2 NOC21_5
   <chr>           <chr>                <dbl>
 1 ""              retired                 NA
 2 ""              Retired                 NA
 3 ""              Program Supervisor   41406
 4 ""              Law Clerk            42200
 5 ""              Retired                 NA
 6 ""              Self employed           NA
 7 ""              Retired                 NA
 8 ""              retired                 NA
 9 ""              Unemployed              NA
10 ""              Full-time disabled      NA
# ℹ 579 more rows
…
One thing to note, there is a huge difference in having a phone interviewer soliciting occupation codes compared to the web mode. We got around 1/4 of the respondents who worked providing a valid occupation code. Having an interviewer probing a response makes a huge difference. Also the 802 respondents who responded housewife do not have valid oesch codes because they truly do not have occupation codes. They were assigned a 31 in the occupation variable. Look:

# A tibble: 25 × 2
   VAR524    SOC  
   <fct>     <fct>
 1 HOUSEWIFE 31   
 2 HOUSEWIFE 31   
 3 HOUSEWIFE 31   
 4 HOUSEWIFE 31   
 5 HOUSEWIFE 31   
 6 HOUSEWIFE 31   
 7 HOUSEWIFE 31   
 8 HOUSEWIFE 31   
 9 HOUSEWIFE 31   
10 HOUSEWIFE 31   
# ℹ 15 more rows

The retired people however were offered the chance to provide an occupation.

# A tibble: 25 × 3
   VAR524  SOC     occupation_oesch  
   <fct>   <fct>   <fct>             
 1 RETIRED 9175    Skilled manual    
 2 RETIRED 8799    Low-skilled manual
 3 RETIRED REFUSED <NA>              
 4 RETIRED 8781    Self-employed     
 5 RETIRED 7113    Self-employed     
 6 RETIRED 8256    Skilled manual    
 7 RETIRED 9530    Technicians       
 8 RETIRED 8239    Low-skilled manual
 9 RETIRED 4113    Skilled clerks    
10 RETIRED 7113    Self-employed     
# ℹ 15 more rows
…
